{
    "notary.notaryName":"Van Auckland Notary",
    "notary.testimonyDate":"18-07-2022",
    "notary.testimonyVersion":"v1.1",
    "notary.certificateOfInheritance":"[{\"Subject\":\"Verklaring van Erfrecht\",\"Geslachtsnaam Overledene\":\"Janssen\",\"Tussenvoegsels Overledene\":\"\",\"Voornamen Overledene\":\"Marian\",\"Geboortedatum Overledene\":\"05-04-1952\",\"Geboorteplaats Overledene\":\"Utrecht\",\"Geboorteland Overledene\":\"Nederland\",\"Plaats Van Overlijden\":\"Den Haag\",\"Adres Overledene\":\"Het Spui 12\",\"Nationaliteit Overledene\":\"Nederlands\",\"Burgelijkestaat Overledene\":\"Ongehuwd\",\"Datum Van Overlijden\":\"05-01-2022\",\"Geslachtsnaam Betrokkene\":\"Janssen\",\"Tussenvoegsels Betrokkene\":\"\",\"Voornamen Betrokkene\":\"Kees\",\"Geboortedatum Betrokkene\":\"09-02-1968\",\"Geboorteplaats Betrokkene\":\"Den Haag\",\"Overledene Heeft Een Testament\":\"Ja\",\"Betrokkene Is Volledig Bevoegd\":\"Ja\",\"Betrokkene Is Executeur\":\"Ja\",\"Notaris\":\"Henk van Auckland\",\"Vestigingsplaats Notaris\":\"Amsterdam\"}]"
}

